TP3_dplyr
…
# A tibble: 1 × 2
  artist      n
  <chr>   <int>
1 Rihanna    23

#on fait group_by puis summarise ou bien count

Question 4

spotify %>% 
  distinct(song, tempo, genre, keep_all=TRUE) %>%
  group_by(genre) %>%
  summarise(mean(tempo), min(tempo), max(tempo), median(tempo), n())

# A tibble: 59 × 6
   genre                                 mean(te…¹ min(t…² max(t…³ media…⁴ `n()`
   <chr>                                     <dbl>   <dbl>   <dbl>   <dbl> <int>
 1 Dance/Electronic                          126.     75.3   180.    126.     41
 2 Folk/Acoustic, pop                        112.     94.9   129.    112.      2
 3 Folk/Acoustic, rock                        84.2    84.2    84.2    84.2     1
 4 Folk/Acoustic, rock, pop                  139.    139.    139.    139.      1
 5 R&B                                       107.     71.8   171.    100.     13
 6 World/Traditional, Folk/Acoustic           82.8    82.8    82.8    82.8     1
 7 World/Traditional, hip hop                100.     98.1   102.    100.      2
 8 World/Traditional, pop                    108.    108.    108.    108.      1
 9 World/Traditional, pop, Folk/Acoustic     103.    100.    105.    103.      2
10 World/Traditional, rock                   118.     96     140.    118.      2
# … with 49 more rows, and abbreviated variable names ¹​`mean(tempo)`,
#   ²​`min(tempo)`, ³​`max(tempo)`, ⁴​`median(tempo)`

Question 5

data_frame<-spotify %>% 
  distinct(year, danceability, energy) %>%
  group_by(year) %>%
  summarise(nrgy=median(energy), dnce=median(danceability))
print(data_frame)

# A tibble: 23 × 3
    year  nrgy  dnce
   <int> <dbl> <dbl>
 1  1998 0.445 0.727
 2  1999 0.799 0.686
 3  2000 0.772 0.708
 4  2001 0.739 0.680
 5  2002 0.747 0.694
 6  2003 0.735 0.663
 7  2004 0.746 0.706
 8  2005 0.732 0.678
 9  2006 0.723 0.687
10  2007 0.778 0.639
# … with 13 more rows
…
